<?xml version="1.0" encoding="UTF-8" standalone="no"?>
<!-- Created with Inkscape (http://www.inkscape.org/) -->

<svg
   xmlns:dc="http://purl.org/dc/elements/1.1/"
   xmlns:cc="http://creativecommons.org/ns#"
   xmlns:rdf="http://www.w3.org/1999/02/22-rdf-syntax-ns#"
   xmlns:svg="http://www.w3.org/2000/svg"
   xmlns="http://www.w3.org/2000/svg"
   xmlns:sodipodi="http://sodipodi.sourceforge.net/DTD/sodipodi-0.dtd"
   xmlns:inkscape="http://www.inkscape.org/namespaces/inkscape"
   width="297mm"
   height="210mm"
   viewBox="0 0 297 210"
   version="1.1"
   id="svg2522"
   inkscape:version="0.92.3 (2405546, 2018-03-11)"
   sodipodi:docname="degaine-small_parts.svg">
  <defs
     id="defs2516" />
  <sodipodi:namedview
     id="base"
     pagecolor="#ffffff"
     bordercolor="#666666"
     borderopacity="1.0"
     inkscape:pageopacity="0.0"
     inkscape:pageshadow="2"
     inkscape:zoom="1"
     inkscape:cx="381.18819"
     inkscape:cy="-38.66672"
     inkscape:document-units="mm"
     inkscape:current-layer="layer1"
     showgrid="false"
     inkscape:window-width="1920"
     inkscape:window-height="996"
     inkscape:window-x="0"
     inkscape:window-y="27"
     inkscape:window-maximized="1"
     inkscape:snap-smooth-nodes="true"
     inkscape:snap-intersection-paths="true"
     inkscape:snap-nodes="true"
     inkscape:object-paths="true"
     inkscape:snap-midpoints="true"
     inkscape:snap-object-midpoints="true"
     inkscape:snap-center="true"
     inkscape:snap-bbox="true"
     inkscape:measure-start="101.394,255.821"
     inkscape:measure-end="172.35,239.906"
     showguides="false"
     inkscape:bbox-nodes="true" />
  <metadata
     id="metadata2519">
    <rdf:RDF>
      <cc:Work
         rdf:about="">
        <dc:format>image/svg+xml</dc:format>
        <dc:type
           rdf:resource="http://purl.org/dc/dcmitype/StillImage" />
        <dc:title />
      </cc:Work>
    </rdf:RDF>
  </metadata>
  <g
     inkscape:label="Calque 1"
     inkscape:groupmode="layer"
     id="layer1"
     transform="translate(0,-87)">
    <path
       style="display:inline;opacity:1;fill:none;fill-opacity:1;fill-rule:nonzero;stroke:#00000a;stroke-width:0.10000001;stroke-linecap:butt;stroke-linejoin:miter;stroke-miterlimit:4;stroke-dasharray:none;stroke-opacity:1"
       d="M 141.20737,282.29336 H 138.35534 C 138.9658,286.68155 142.43636,290.15217 146.82459,290.76261 V 287.91059 H 149.59083 V 290.76261 C 153.97875,290.15194 157.44912,286.68135 158.05957,282.29336 H 155.20806 V 279.52712 H 158.05957 C 157.44894,275.13932 153.9786,271.66901 149.59083,271.05839 V 273.91041 H 146.82459 V 271.05787 C 142.43649,271.66827 138.96597,275.13908 138.35534,279.52712 H 141.20737 Z M 148.20746,277.96029 C 149.8367,277.96029 151.15766,279.28074 151.15766,280.90998 151.15766,282.53922 149.8367,283.86019 148.20746,283.86019 146.57822,283.86019 145.25725,282.53922 145.25725,280.90998 145.25725,279.28073 146.57822,277.96029 148.20746,277.96029 Z"
       id="path5489-4-9"
       inkscape:connector-curvature="0"
       sodipodi:nodetypes="cccccccccccccccccsssss" />
    <path
       style="display:inline;fill:none;fill-rule:evenodd;stroke:#fb0000;stroke-width:0.10000005;stroke-linecap:butt;stroke-linejoin:miter;stroke-miterlimit:4;stroke-dasharray:none;stroke-opacity:1"
       d="M 0.05000003,270.99993 V 271.09993"
       id="path3824"
       inkscape:connector-curvature="0"
       sodipodi:nodetypes="cc" />
    <path
       style="opacity:1;fill:none;fill-opacity:1;fill-rule:nonzero;stroke:#170300;stroke-width:0.1;stroke-linecap:butt;stroke-linejoin:miter;stroke-miterlimit:4;stroke-dasharray:none;stroke-opacity:1"
       d="M 26.450002,295.5 C 26.450002,296.30081 25.800815,296.95 25.000002,296.95 H 20.944234 L 20.944134,292.94979 20.944184,290.84975 23.444184,290.84978 V 288.74977 H 20.944184 V 284.75 H 13.249184 5.599184 V 288.74977 H 3.049184 V 290.84975 L 5.599184,290.84978 5.599179,292.94992 5.599189,296.95 H 1.500009 C 0.699197,296.95 0.050009,296.30081 0.050009,295.5 L 0.05,273.49993 C 0.049999,272.14683 1.1469,271.04993 2.5,271.04993 H 6.79998 V 277.44982 H 19.69998 V 271.04993 H 24.00048 C 25.35358,271.04993 26.45048,272.14683 26.45048,273.49993 Z"
       id="path850"
       inkscape:connector-curvature="0"
       sodipodi:nodetypes="cccccccccccccccccccccccccccc" />
    <path
       style="opacity:1;fill:none;fill-opacity:1;fill-rule:nonzero;stroke:#170300;stroke-width:0.1;stroke-linecap:butt;stroke-linejoin:miter;stroke-miterlimit:4;stroke-dasharray:none;stroke-opacity:1"
       d="M 53.908816,295.5 C 53.908816,296.30081 53.259629,296.95 52.458816,296.95 H 48.403048 L 48.402948,292.94979 48.402998,290.84975 50.902998,290.84978 V 288.74977 H 48.402998 V 284.75 H 40.707998 33.057998 V 288.74977 H 30.507998 V 290.84975 L 33.057998,290.84978 33.057993,292.94992 33.058003,296.95 H 28.958823 C 28.158011,296.95 27.508823,296.30081 27.508823,295.5 L 27.508814,273.49993 C 27.508813,272.14683 28.605714,271.04993 29.958814,271.04993 H 34.258794 V 277.44982 H 47.158794 V 271.04993 H 51.459294 C 52.812394,271.04993 53.909294,272.14683 53.909294,273.49993 Z"
       id="path850-6"
       inkscape:connector-curvature="0"
       sodipodi:nodetypes="cccccccccccccccccccccccccccc" />
    <path
       style="display:inline;opacity:1;fill:none;fill-opacity:1;fill-rule:nonzero;stroke:#00000a;stroke-width:0.10000001;stroke-linecap:butt;stroke-linejoin:miter;stroke-miterlimit:4;stroke-dasharray:none;stroke-opacity:1"
       d="M 179.40438,271.05045 C 179.11829,271.05192 178.83907,271.13859 178.56722,271.34088 175.08759,273.92996 177.96777,278.35381 177.96777,279.69127 L 180.9681,279.69075 180.96759,282.2415 C 180.96759,282.49004 181.21928,282.84146 181.46782,282.84146 H 187.06799 C 187.31648,282.84146 187.5677,282.49004 187.5677,282.2415 V 279.69075 H 196.06796 V 282.2415 C 196.06796,282.49004 196.31969,282.84146 196.56819,282.84146 H 202.16784 C 202.41639,282.84146 202.66807,282.49004 202.66807,282.2415 V 279.69075 L 205.66789,279.69127 C 205.66789,278.35381 208.54552,273.92997 205.06638,271.34088 203.32685,270.04634 201.28532,273.49236 199.07449,273.64099 196.86367,273.78961 193.98372,273.64099 191.56746,273.64099 189.15123,273.64099 186.77111,273.78964 184.56013,273.64099 182.69461,273.51555 180.94924,271.04253 179.40438,271.05045 Z M 184.26765,277.53946 C 183.76236,277.53957 183.35264,277.13008 183.35246,276.62479 183.35235,276.1193 183.76216,275.7095 184.26765,275.7096 184.77293,275.70978 185.18242,276.1195 185.18232,276.62479 185.18214,277.12987 184.77273,277.53928 184.26765,277.53946 M 199.36802,277.53946 C 198.86273,277.53957 198.45301,277.13008 198.45283,276.62479 198.45272,276.1193 198.86253,275.7095 199.36802,275.7096 199.8735,275.7095 200.28331,276.1193 200.2832,276.62479 200.28302,277.13008 199.8733,277.53957 199.36802,277.53946"
       id="path2943"
       inkscape:connector-curvature="0"
       sodipodi:nodetypes="cccccsssccssssccccscccccccccccc" />
    <path
       style="display:inline;opacity:1;fill:none;fill-opacity:1;fill-rule:nonzero;stroke:#00000a;stroke-width:0.10000001;stroke-linecap:butt;stroke-linejoin:miter;stroke-miterlimit:4;stroke-dasharray:none;stroke-opacity:1"
       d="M 63.544368,271.05737 C 59.156228,271.66776 55.685708,275.13858 55.075068,279.52662 H 57.927108 V 282.29286 H 55.075068 C 55.685538,286.68105 59.156108,290.15166 63.544368,290.76211 V 287.91008 H 66.310628 V 290.76211 C 70.698568,290.15143 74.168958,286.68084 74.779398,282.29286 H 71.927878 V 279.52662 H 74.779398 C 74.168768,275.13881 70.698418,271.66851 66.310628,271.05788 V 273.90991 H 63.544368 Z"
       id="path3296"
       inkscape:connector-curvature="0" />
    <path
       style="display:inline;opacity:1;fill:none;fill-opacity:1;fill-rule:nonzero;stroke:#00000a;stroke-width:0.10000001;stroke-linecap:butt;stroke-linejoin:miter;stroke-miterlimit:4;stroke-dasharray:none;stroke-opacity:1"
       d="M 126.06203,271.05787 C 121.67392,271.66826 118.20341,275.13909 117.59278,279.52712 H 120.4448 V 282.29336 H 117.59278 C 118.20324,286.68155 121.6738,290.15217 126.06203,290.76261 V 287.91059 H 128.82827 V 290.76261 C 133.21619,290.15194 136.68656,286.68134 137.297,282.29336 H 134.4455 V 279.52712 H 137.297 C 136.68637,275.13932 133.21604,271.66902 128.82827,271.05839 V 273.91041 H 126.06203 Z M 127.44489,275.21008 C 130.59305,275.20985 133.14527,277.76183 133.14532,280.90999 133.14555,284.05833 130.59325,286.61064 127.44489,286.61041 124.29673,286.61037 121.74475,284.05814 121.74498,280.90999 121.74503,277.76203 124.29693,275.21012 127.44489,275.21008 Z"
       id="path5489-6-9"
       inkscape:connector-curvature="0" />
    <path
       style="display:inline;opacity:1;fill:none;fill-opacity:1;fill-rule:nonzero;stroke:#00000a;stroke-width:0.10000001;stroke-linecap:butt;stroke-linejoin:miter;stroke-miterlimit:4;stroke-dasharray:none;stroke-opacity:1"
       d="M 92.690048,279.52662 H 95.542078 C 94.931428,275.13864 91.460818,271.66832 87.072778,271.05788 V 273.90991 H 84.306528 V 271.05788 C 79.918838,271.66865 76.448328,275.13889 75.837748,279.52662 H 78.689778 V 282.29286 H 75.837748 C 76.448158,286.6809 79.918488,290.15146 84.306528,290.7621 V 287.91008 H 87.072778 V 290.7621 C 91.460988,290.15165 94.931608,286.68103 95.542078,282.29286 H 92.690048 Z M 85.689908,277.95927 C 87.319028,277.95952 88.639678,279.28038 88.639618,280.90948 88.639678,282.53859 87.319028,283.85944 85.689908,283.85968 85.102758,283.85927 84.529228,283.68365 84.042458,283.35532 V 278.4657 C 84.529038,278.13678 85.102578,277.96017 85.689908,277.95927 Z"
       id="path5489-2-7-7"
       inkscape:connector-curvature="0"
       sodipodi:nodetypes="ccccccccccccccccccccccc" />
    <path
       style="display:inline;opacity:1;fill:none;fill-opacity:1;fill-rule:nonzero;stroke:#00000a;stroke-width:0.10000001;stroke-linecap:butt;stroke-linejoin:miter;stroke-miterlimit:4;stroke-dasharray:none;stroke-opacity:1"
       d="M 113.56753,279.52662 H 116.41956 C 115.8089,275.13864 112.33832,271.66832 107.95031,271.05788 V 273.90991 H 105.18407 V 271.05788 C 100.7964,271.66865 97.325878,275.13889 96.715298,279.52662 H 99.567328 V 282.29286 H 96.715298 C 97.325708,286.68089 100.79605,290.15145 105.18407,290.76209 V 287.91007 H 107.95031 V 290.76209 C 112.33848,290.15164 115.80908,286.68102 116.41956,282.29286 H 113.56753 Z M 106.56745,277.95927 C 108.19655,277.95952 109.5172,279.28038 109.51713,280.90948 109.5172,282.53859 108.19655,283.85944 106.56745,283.85968 105.9803,283.85927 105.40677,283.68365 104.92,283.35532 V 278.4657 C 105.40658,278.13678 105.98012,277.96017 106.56745,277.95927 Z"
       id="path5489-2-7-8-3"
       inkscape:connector-curvature="0"
       sodipodi:nodetypes="ccccccccccccccccccccccc" />
    <rect
       style="opacity:1;fill:none;fill-opacity:1;fill-rule:nonzero;stroke:#ed0000;stroke-width:0.1;stroke-linecap:butt;stroke-linejoin:miter;stroke-miterlimit:4;stroke-dasharray:none;stroke-opacity:1"
       id="rect3334"
       width="11.9"
       height="2.9000001"
       x="55.133812"
       y="291.46002"
       ry="0.00034759947" />
    <rect
       style="opacity:1;fill:none;fill-opacity:1;fill-rule:nonzero;stroke:#ed0000;stroke-width:0.1;stroke-linecap:butt;stroke-linejoin:miter;stroke-miterlimit:4;stroke-dasharray:none;stroke-opacity:1"
       id="rect3334-6"
       width="11.9"
       height="2.9000001"
       x="68.192139"
       y="291.46002"
       ry="0.00034759947" />
    <rect
       style="opacity:1;fill:none;fill-opacity:1;fill-rule:nonzero;stroke:#ed0000;stroke-width:0.1;stroke-linecap:butt;stroke-linejoin:miter;stroke-miterlimit:4;stroke-dasharray:none;stroke-opacity:1"
       id="rect3334-1"
       width="11.9"
       height="2.9000001"
       x="81.250267"
       y="291.46002"
       ry="0.00034759947" />
    <rect
       style="opacity:1;fill:none;fill-opacity:1;fill-rule:nonzero;stroke:#ed0000;stroke-width:0.1;stroke-linecap:butt;stroke-linejoin:miter;stroke-miterlimit:4;stroke-dasharray:none;stroke-opacity:1"
       id="rect3334-2"
       width="11.9"
       height="2.9000001"
       x="94.208412"
       y="291.46002"
       ry="0.00034759947" />
    <rect
       style="opacity:1;fill:none;fill-opacity:1;fill-rule:nonzero;stroke:#ed0000;stroke-width:0.1;stroke-linecap:butt;stroke-linejoin:miter;stroke-miterlimit:4;stroke-dasharray:none;stroke-opacity:1"
       id="rect3334-2-4"
       width="11.9"
       height="2.9000001"
       x="107.26656"
       y="291.46002"
       ry="0.00034759947" />
    <path
       inkscape:connector-curvature="0"
       style="opacity:1;fill:none;fill-opacity:1;fill-rule:nonzero;stroke:#06000a;stroke-width:0.10000001;stroke-linecap:butt;stroke-linejoin:miter;stroke-miterlimit:4;stroke-dasharray:none;stroke-opacity:1"
       d="M 168.67269,294.95043 C 168.14802,294.95043 167.72269,294.5251 167.72269,294.00043 V 272.00043 C 167.72269,271.47576 168.14802,271.05043 168.67269,271.05043 H 174.21169 C 174.73636,271.05043 175.16169,271.47576 175.16169,272.00043 V 278.24996 C 175.16169,278.77463 174.73636,279.19996 174.21169,279.19996 H 172.72269 V 282.99996 286.79996 H 174.21169 C 174.73636,286.79996 175.16169,287.22529 175.16169,287.74996 L 175.16119,294.00043 C 175.16119,294.5251 174.73586,294.95043 174.21119,294.95043 Z"
       id="path12047-1"
       sodipodi:nodetypes="cccccccccccccccc" />
    <path
       inkscape:connector-curvature="0"
       style="opacity:1;fill:none;fill-opacity:1;fill-rule:nonzero;stroke:#06000a;stroke-width:0.10000001;stroke-linecap:butt;stroke-linejoin:miter;stroke-miterlimit:4;stroke-dasharray:none;stroke-opacity:1"
       d="M 160.17535,294.95043 C 159.65068,294.95043 159.22535,294.5251 159.22535,294.00043 V 272.00043 C 159.22535,271.47576 159.65068,271.05043 160.17535,271.05043 H 165.71435 C 166.23902,271.05043 166.66435,271.47576 166.66435,272.00043 V 278.24996 C 166.66435,278.77463 166.23902,279.19996 165.71435,279.19996 H 164.22535 V 282.99996 286.79996 H 165.71435 C 166.23902,286.79996 166.66435,287.22529 166.66435,287.74996 L 166.66385,294.00043 C 166.66385,294.5251 166.23852,294.95043 165.71385,294.95043 Z"
       id="path12047-1-4"
       sodipodi:nodetypes="cccccccccccccccc" />
  </g>
</svg>
