EESchema Schematic File Version 4
LIBS:degaine-display-cache
EELAYER 26 0
EELAYER END
$Descr A4 11693 8268
encoding utf-8
Sheet 1 1
Title ""
Date ""
Rev ""
Comp ""
Comment1 ""
Comment2 ""
Comment3 ""
Comment4 ""
$EndDescr
$Comp
L SparkFun-LED:WS2812B D2
U 1 1 5AD89A7C
P 10500 3300
F 0 "D2" H 10410 3630 50  0000 L BNN
F 1 "WS2812B" H 10400 3000 50  0000 L BNN
F 2 "Crafting labs:WS2812B" H 10530 3450 20  0001 C CNN
F 3 "" H 10500 3300 60  0000 C CNN
	1    10500 3300
	0    -1   -1   0   
$EndComp
$Comp
L SparkFun-LED:WS2812B D5
U 1 1 5AD89B20
P 8200 4600
F 0 "D5" H 8110 4930 50  0000 L BNN
F 1 "WS2812B" H 8100 4300 50  0000 L BNN
F 2 "Crafting labs:WS2812B" H 8230 4750 20  0001 C CNN
F 3 "" H 8200 4600 60  0000 C CNN
	1    8200 4600
	0    1    1    0   
$EndComp
$Comp
L SparkFun-LED:WS2812B D6
U 1 1 5AD89B6C
P 8200 2800
F 0 "D6" H 8110 3130 50  0000 L BNN
F 1 "WS2812B" H 8100 2500 50  0000 L BNN
F 2 "Crafting labs:WS2812B" H 8230 2950 20  0001 C CNN
F 3 "" H 8200 2800 60  0000 C CNN
	1    8200 2800
	0    1    1    0   
$EndComp
$Comp
L SparkFun-LED:WS2812B D1
U 1 1 5AD89BA9
P 9100 2200
F 0 "D1" H 9010 2530 50  0000 L BNN
F 1 "WS2812B" H 9000 1900 50  0000 L BNN
F 2 "crafting-labs:WS2812B" H 9130 2350 20  0001 C CNN
F 3 "" H 9100 2200 60  0000 C CNN
	1    9100 2200
	1    0    0    -1  
$EndComp
$Comp
L SparkFun-LED:WS2812B D3
U 1 1 5AD89BF5
P 10500 5100
F 0 "D3" H 10410 5430 50  0000 L BNN
F 1 "WS2812B" H 10400 4800 50  0000 L BNN
F 2 "Crafting labs:WS2812B" H 10530 5250 20  0001 C CNN
F 3 "" H 10500 5100 60  0000 C CNN
	1    10500 5100
	0    -1   -1   0   
$EndComp
$Comp
L SparkFun-LED:WS2812B D7
U 1 1 5AD89C3A
P 9600 3900
F 0 "D7" H 9510 4230 50  0000 L BNN
F 1 "WS2812B" H 9500 3600 50  0000 L BNN
F 2 "Crafting labs:WS2812B" H 9630 4050 20  0001 C CNN
F 3 "" H 9600 3900 60  0000 C CNN
	1    9600 3900
	-1   0    0    1   
$EndComp
$Comp
L SparkFun-LED:WS2812B D4
U 1 1 5AD89C9C
P 9100 5800
F 0 "D4" H 9010 6130 50  0000 L BNN
F 1 "WS2812B" H 9000 5500 50  0000 L BNN
F 2 "Crafting labs:WS2812B" H 9130 5950 20  0001 C CNN
F 3 "" H 9100 5800 60  0000 C CNN
	1    9100 5800
	1    0    0    -1  
$EndComp
$Comp
L Connector:Conn_01x03_Male P2
U 1 1 5AD8AA9A
P 10700 2100
F 0 "P2" H 10700 2300 50  0000 C CNN
F 1 "IN" H 10700 1950 50  0000 C CNN
F 2 "Connector_PinHeader_2.54mm:PinHeader_1x03_P2.54mm_Vertical" H 10700 2100 50  0001 C CNN
F 3 "" H 10700 2100 50  0000 C CNN
	1    10700 2100
	-1   0    0    1   
$EndComp
$Comp
L SparkFun-LED:WS2812B D26
U 1 1 5AD8F3DF
P -1400 4600
F 0 "D26" H -1490 4930 50  0000 L BNN
F 1 "WS2812B" H -1500 4300 50  0000 L BNN
F 2 "Crafting labs:WS2812B" H -1370 4750 20  0001 C CNN
F 3 "" H -1400 4600 60  0000 C CNN
	1    -1400 4600
	0    1    1    0   
$EndComp
$Comp
L SparkFun-LED:WS2812B D27
U 1 1 5AD8F575
P -1400 2800
F 0 "D27" H -1490 3130 50  0000 L BNN
F 1 "WS2812B" H -1500 2500 50  0000 L BNN
F 2 "Crafting labs:WS2812B" H -1370 2950 20  0001 C CNN
F 3 "" H -1400 2800 60  0000 C CNN
	1    -1400 2800
	0    1    1    0   
$EndComp
$Comp
L SparkFun-LED:WS2812B D25
U 1 1 5AD8F5EA
P -500 5800
F 0 "D25" H -590 6130 50  0000 L BNN
F 1 "WS2812B" H -600 5500 50  0000 L BNN
F 2 "Crafting labs:WS2812B" H -470 5950 20  0001 C CNN
F 3 "" H -500 5800 60  0000 C CNN
	1    -500 5800
	1    0    0    -1  
$EndComp
$Comp
L SparkFun-LED:WS2812B D28
U 1 1 5AD8F666
P 0 3900
F 0 "D28" H -90 4230 50  0000 L BNN
F 1 "WS2812B" H -100 3600 50  0000 L BNN
F 2 "Crafting labs:WS2812B" H 30  4050 20  0001 C CNN
F 3 "" H 0   3900 60  0000 C CNN
	1    0    3900
	-1   0    0    1   
$EndComp
$Comp
L SparkFun-LED:WS2812B D24
U 1 1 5AD8F6CD
P 900 5100
F 0 "D24" H 810 5430 50  0000 L BNN
F 1 "WS2812B" H 800 4800 50  0000 L BNN
F 2 "Crafting labs:WS2812B" H 930 5250 20  0001 C CNN
F 3 "" H 900 5100 60  0000 C CNN
	1    900  5100
	0    -1   -1   0   
$EndComp
$Comp
L SparkFun-LED:WS2812B D23
U 1 1 5AD8F74B
P 900 3300
F 0 "D23" H 810 3630 50  0000 L BNN
F 1 "WS2812B" H 800 3000 50  0000 L BNN
F 2 "Crafting labs:WS2812B" H 930 3450 20  0001 C CNN
F 3 "" H 900 3300 60  0000 C CNN
	1    900  3300
	0    -1   -1   0   
$EndComp
$Comp
L SparkFun-LED:WS2812B D22
U 1 1 5AD8F7C8
P -500 2200
F 0 "D22" H -590 2530 50  0000 L BNN
F 1 "WS2812B" H -600 1900 50  0000 L BNN
F 2 "Crafting labs:WS2812B" H -470 2350 20  0001 C CNN
F 3 "" H -500 2200 60  0000 C CNN
	1    -500 2200
	1    0    0    -1  
$EndComp
$Comp
L SparkFun-LED:WS2812B D19
U 1 1 5AD8F946
P 1800 4600
F 0 "D19" H 1710 4930 50  0000 L BNN
F 1 "WS2812B" H 1700 4300 50  0000 L BNN
F 2 "Crafting labs:WS2812B" H 1830 4750 20  0001 C CNN
F 3 "" H 1800 4600 60  0000 C CNN
	1    1800 4600
	0    1    1    0   
$EndComp
$Comp
L SparkFun-LED:WS2812B D21
U 1 1 5AD8F9CF
P 3200 3900
F 0 "D21" H 3110 4230 50  0000 L BNN
F 1 "WS2812B" H 3100 3600 50  0000 L BNN
F 2 "Crafting labs:WS2812B" H 3230 4050 20  0001 C CNN
F 3 "" H 3200 3900 60  0000 C CNN
	1    3200 3900
	-1   0    0    1   
$EndComp
$Comp
L SparkFun-LED:WS2812B D20
U 1 1 5AD8FA49
P 1800 2800
F 0 "D20" H 1710 3130 50  0000 L BNN
F 1 "WS2812B" H 1700 2500 50  0000 L BNN
F 2 "Crafting labs:WS2812B" H 1830 2950 20  0001 C CNN
F 3 "" H 1800 2800 60  0000 C CNN
	1    1800 2800
	0    1    1    0   
$EndComp
$Comp
L SparkFun-LED:WS2812B D18
U 1 1 5AD8FADC
P 2700 5800
F 0 "D18" H 2610 6130 50  0000 L BNN
F 1 "WS2812B" H 2600 5500 50  0000 L BNN
F 2 "Crafting labs:WS2812B" H 2730 5950 20  0001 C CNN
F 3 "" H 2700 5800 60  0000 C CNN
	1    2700 5800
	1    0    0    -1  
$EndComp
$Comp
L SparkFun-LED:WS2812B D16
U 1 1 5AD8FB80
P 4100 3300
F 0 "D16" H 4010 3630 50  0000 L BNN
F 1 "WS2812B" H 4000 3000 50  0000 L BNN
F 2 "Crafting labs:WS2812B" H 4130 3450 20  0001 C CNN
F 3 "" H 4100 3300 60  0000 C CNN
	1    4100 3300
	0    -1   -1   0   
$EndComp
$Comp
L SparkFun-LED:WS2812B D15
U 1 1 5AD8FC17
P 2700 2200
F 0 "D15" H 2610 2530 50  0000 L BNN
F 1 "WS2812B" H 2600 1900 50  0000 L BNN
F 2 "Crafting labs:WS2812B" H 2730 2350 20  0001 C CNN
F 3 "" H 2700 2200 60  0000 C CNN
	1    2700 2200
	1    0    0    -1  
$EndComp
$Comp
L SparkFun-LED:WS2812B D17
U 1 1 5AD8FCA3
P 4100 5100
F 0 "D17" H 4010 5430 50  0000 L BNN
F 1 "WS2812B" H 4000 4800 50  0000 L BNN
F 2 "Crafting labs:WS2812B" H 4130 5250 20  0001 C CNN
F 3 "" H 4100 5100 60  0000 C CNN
	1    4100 5100
	0    -1   -1   0   
$EndComp
$Comp
L SparkFun-LED:WS2812B D12
U 1 1 5AD8FD4A
P 5000 4600
F 0 "D12" H 4910 4930 50  0000 L BNN
F 1 "WS2812B" H 4900 4300 50  0000 L BNN
F 2 "Crafting labs:WS2812B" H 5030 4750 20  0001 C CNN
F 3 "" H 5000 4600 60  0000 C CNN
	1    5000 4600
	0    1    1    0   
$EndComp
$Comp
L SparkFun-LED:WS2812B D14
U 1 1 5AD8FE34
P 6400 3900
F 0 "D14" H 6310 4230 50  0000 L BNN
F 1 "WS2812B" H 6300 3600 50  0000 L BNN
F 2 "Crafting labs:WS2812B" H 6430 4050 20  0001 C CNN
F 3 "" H 6400 3900 60  0000 C CNN
	1    6400 3900
	-1   0    0    1   
$EndComp
$Comp
L SparkFun-LED:WS2812B D13
U 1 1 5AD8FED5
P 5000 2800
F 0 "D13" H 4910 3130 50  0000 L BNN
F 1 "WS2812B" H 4900 2500 50  0000 L BNN
F 2 "Crafting labs:WS2812B" H 5030 2950 20  0001 C CNN
F 3 "" H 5000 2800 60  0000 C CNN
	1    5000 2800
	0    1    1    0   
$EndComp
$Comp
L SparkFun-LED:WS2812B D11
U 1 1 5AD8FF79
P 5900 5800
F 0 "D11" H 5810 6130 50  0000 L BNN
F 1 "WS2812B" H 5800 5500 50  0000 L BNN
F 2 "Crafting labs:WS2812B" H 5930 5950 20  0001 C CNN
F 3 "" H 5900 5800 60  0000 C CNN
	1    5900 5800
	1    0    0    -1  
$EndComp
$Comp
L SparkFun-LED:WS2812B D9
U 1 1 5AD9004E
P 7300 3300
F 0 "D9" H 7210 3630 50  0000 L BNN
F 1 "WS2812B" H 7200 3000 50  0000 L BNN
F 2 "Crafting labs:WS2812B" H 7330 3450 20  0001 C CNN
F 3 "" H 7300 3300 60  0000 C CNN
	1    7300 3300
	0    -1   -1   0   
$EndComp
$Comp
L SparkFun-LED:WS2812B D8
U 1 1 5AD900F2
P 5900 2200
F 0 "D8" H 5810 2530 50  0000 L BNN
F 1 "WS2812B" H 5800 1900 50  0000 L BNN
F 2 "Crafting labs:WS2812B" H 5930 2350 20  0001 C CNN
F 3 "" H 5900 2200 60  0000 C CNN
	1    5900 2200
	1    0    0    -1  
$EndComp
$Comp
L SparkFun-LED:WS2812B D10
U 1 1 5AD90199
P 7300 5100
F 0 "D10" H 7210 5430 50  0000 L BNN
F 1 "WS2812B" H 7200 4800 50  0000 L BNN
F 2 "Crafting labs:WS2812B" H 7330 5250 20  0001 C CNN
F 3 "" H 7300 5100 60  0000 C CNN
	1    7300 5100
	0    -1   -1   0   
$EndComp
Text GLabel 4050 1300 0    60   Input ~ 0
5v
Text GLabel 4100 1600 0    60   Input ~ 0
GND
$Comp
L power:+5V #PWR01
U 1 1 5ADBE781
P 4400 1300
F 0 "#PWR01" H 4400 1150 50  0001 C CNN
F 1 "+5V" H 4400 1440 50  0000 C CNN
F 2 "" H 4400 1300 50  0000 C CNN
F 3 "" H 4400 1300 50  0000 C CNN
	1    4400 1300
	0    1    1    0   
$EndComp
$Comp
L power:GND #PWR02
U 1 1 5ADBE7E3
P 4450 1600
F 0 "#PWR02" H 4450 1350 50  0001 C CNN
F 1 "GND" H 4450 1450 50  0000 C CNN
F 2 "" H 4450 1600 50  0000 C CNN
F 3 "" H 4450 1600 50  0000 C CNN
	1    4450 1600
	0    -1   -1   0   
$EndComp
Text GLabel 8900 1800 1    60   Input ~ 0
5v
Text GLabel 9900 4100 2    60   Input ~ 0
5v
Text GLabel 10300 3600 3    60   Input ~ 0
5v
Text GLabel 10150 5300 0    60   Input ~ 0
5v
Text GLabel 8800 5600 0    60   Input ~ 0
5v
Text GLabel 7000 5300 0    60   Input ~ 0
5v
Text GLabel 5600 5600 0    60   Input ~ 0
5v
Text GLabel 6700 4100 2    60   Input ~ 0
5v
Text GLabel 6950 3500 0    60   Input ~ 0
5v
Text GLabel 5150 2500 0    60   Input ~ 0
5v
Text GLabel 3900 5400 3    60   Input ~ 0
5v
Text GLabel 2400 5600 0    60   Input ~ 0
5v
Text GLabel 2000 4300 1    60   Input ~ 0
5v
Text GLabel 5200 4300 1    60   Input ~ 0
5v
Text GLabel 3500 4100 2    60   Input ~ 0
5v
Text GLabel 1950 2600 0    60   Input ~ 0
5v
Text GLabel 5700 1850 1    60   Input ~ 0
5v
Text GLabel 10400 2200 0    60   Input ~ 0
GND
Text GLabel 9900 2300 2    60   Input ~ 0
GND
Text GLabel 10750 2600 2    60   Input ~ 0
GND
Text GLabel 8900 3650 1    60   Input ~ 0
GND
Text GLabel 10600 4300 1    60   Input ~ 0
GND
Text GLabel 9900 5900 2    60   Input ~ 0
GND
Text GLabel 8100 5400 3    60   Input ~ 0
GND
Text GLabel 8100 3600 3    60   Input ~ 0
GND
Text GLabel 7400 2500 1    60   Input ~ 0
GND
Text GLabel 7400 4300 1    60   Input ~ 0
GND
Text GLabel 8350 2500 0    60   Input ~ 0
5v
Text GLabel 8400 4300 1    60   Input ~ 0
5v
Text GLabel 10400 2000 0    60   Input ~ 0
5v
Text GLabel 6700 2300 2    60   Input ~ 0
GND
Text GLabel 5700 3650 1    60   Input ~ 0
GND
Text GLabel 6700 5900 2    60   Input ~ 0
GND
Text GLabel 4900 5400 3    60   Input ~ 0
GND
Text GLabel 4900 3600 3    60   Input ~ 0
GND
Text GLabel 4200 2500 1    60   Input ~ 0
GND
Text GLabel 4200 4300 1    60   Input ~ 0
GND
Text GLabel 3500 2300 2    60   Input ~ 0
GND
Text GLabel 2500 3650 1    60   Input ~ 0
GND
Text GLabel 3500 5900 2    60   Input ~ 0
GND
Text GLabel 1700 5400 3    60   Input ~ 0
GND
Text GLabel 1700 3600 3    60   Input ~ 0
GND
Text GLabel 1000 2500 1    60   Input ~ 0
GND
Text GLabel 1000 4300 1    60   Input ~ 0
GND
Text GLabel 300  5900 2    60   Input ~ 0
GND
Text GLabel -1500 5400 3    60   Input ~ 0
GND
Text GLabel -700 3650 1    60   Input ~ 0
GND
Text GLabel -1500 3600 3    60   Input ~ 0
GND
Text GLabel 350  2300 2    60   Input ~ 0
GND
Text GLabel 3900 3600 3    60   Input ~ 0
5v
Text GLabel 2500 1850 1    60   Input ~ 0
5v
Text GLabel -700 1850 1    60   Input ~ 0
5v
Text GLabel 700  5400 3    60   Input ~ 0
5v
Text GLabel -800 5600 0    60   Input ~ 0
5v
Text GLabel -1200 4300 1    60   Input ~ 0
5v
Text GLabel 300  4100 2    60   Input ~ 0
5v
Text GLabel -1300 2600 0    60   Input ~ 0
5v
Text GLabel 550  3500 0    60   Input ~ 0
5v
Wire Wire Line
	8900 2300 8800 2300
Wire Wire Line
	8800 2300 8800 2600
Wire Wire Line
	8800 2600 10300 2600
Wire Wire Line
	10600 3500 10600 3900
Wire Wire Line
	10600 3900 10300 3900
Wire Wire Line
	10300 3900 10300 4400
Wire Wire Line
	10600 5300 10600 5600
Wire Wire Line
	10600 5600 9800 5600
Wire Wire Line
	8900 5900 8400 5900
Wire Wire Line
	8400 5900 8400 5300
Wire Wire Line
	8100 4400 8100 4000
Wire Wire Line
	8100 4000 8400 4000
Wire Wire Line
	8400 4000 8400 3500
Wire Wire Line
	8100 2600 8100 2400
Wire Wire Line
	8100 2400 8600 2400
Wire Wire Line
	8600 2400 8600 4100
Wire Wire Line
	8600 4100 8900 4100
Wire Wire Line
	9800 3800 9800 2700
Wire Wire Line
	9800 2700 8700 2700
Wire Wire Line
	8700 2700 8700 2000
Wire Wire Line
	8700 2000 6600 2000
Wire Wire Line
	7400 3500 7400 3900
Wire Wire Line
	7400 3900 7100 3900
Wire Wire Line
	7100 3900 7100 4400
Wire Wire Line
	7400 5300 7400 5600
Wire Wire Line
	7400 5600 6600 5600
Wire Wire Line
	5700 5900 5200 5900
Wire Wire Line
	5200 5900 5200 5300
Wire Wire Line
	4900 4400 4900 4000
Wire Wire Line
	4900 4000 5200 4000
Wire Wire Line
	5200 4000 5200 3500
Wire Wire Line
	4900 2600 4900 2400
Wire Wire Line
	4900 2400 5400 2400
Wire Wire Line
	5400 2400 5400 4100
Wire Wire Line
	5400 4100 5700 4100
Wire Wire Line
	5700 2300 5600 2300
Wire Wire Line
	5600 2300 5600 2600
Wire Wire Line
	5600 2600 7100 2600
Wire Wire Line
	6600 3800 6700 3800
Wire Wire Line
	6700 3800 6700 2700
Wire Wire Line
	6700 2700 5500 2700
Wire Wire Line
	5500 2700 5500 2000
Wire Wire Line
	5500 2000 3400 2000
Wire Wire Line
	2500 2300 2400 2300
Wire Wire Line
	2400 2300 2400 2600
Wire Wire Line
	2400 2600 3900 2600
Wire Wire Line
	4200 3500 4200 3900
Wire Wire Line
	4200 3900 3900 3900
Wire Wire Line
	3900 3900 3900 4400
Wire Wire Line
	4200 5300 4200 5600
Wire Wire Line
	4200 5600 3400 5600
Wire Wire Line
	2500 5900 2000 5900
Wire Wire Line
	2000 5900 2000 5300
Wire Wire Line
	1700 4400 1700 4000
Wire Wire Line
	1700 4000 2000 4000
Wire Wire Line
	2000 4000 2000 3500
Wire Wire Line
	1700 2600 1700 2500
Wire Wire Line
	1700 2500 2200 2500
Wire Wire Line
	2200 2500 2200 4100
Wire Wire Line
	2200 4100 2500 4100
Wire Wire Line
	3400 3800 3500 3800
Wire Wire Line
	3500 3800 3500 2800
Wire Wire Line
	3500 2800 2300 2800
Wire Wire Line
	2300 2800 2300 2000
Wire Wire Line
	2300 2000 200  2000
Wire Wire Line
	-700 2300 -800 2300
Wire Wire Line
	-800 2300 -800 2600
Wire Wire Line
	-800 2600 700  2600
Wire Wire Line
	1000 3500 1000 3900
Wire Wire Line
	1000 3900 700  3900
Wire Wire Line
	700  3900 700  4400
Wire Wire Line
	1000 5300 1000 5600
Wire Wire Line
	1000 5600 200  5600
Wire Wire Line
	-700 5900 -1200 5900
Wire Wire Line
	-1200 5900 -1200 5300
Wire Wire Line
	-1500 4400 -1500 4000
Wire Wire Line
	-1500 4000 -1200 4000
Wire Wire Line
	-1200 4000 -1200 3500
Wire Wire Line
	-1500 2600 -1500 2500
Wire Wire Line
	-1500 2500 -1000 2500
Wire Wire Line
	-1000 2500 -1000 4100
Wire Wire Line
	-1000 4100 -700 4100
Wire Wire Line
	10500 2100 10200 2100
Wire Wire Line
	10200 2100 10200 2000
Wire Wire Line
	10200 2000 9800 2000
Wire Wire Line
	8900 1800 8900 2000
Wire Wire Line
	9800 2300 9900 2300
Wire Wire Line
	10400 2200 10500 2200
Wire Wire Line
	10600 2600 10750 2600
Wire Wire Line
	10300 3500 10300 3600
Wire Wire Line
	10600 4300 10600 4400
Wire Wire Line
	10300 5300 10150 5300
Wire Wire Line
	9800 4100 9900 4100
Wire Wire Line
	8900 3800 8900 3650
Wire Wire Line
	9800 5900 9900 5900
Wire Wire Line
	8900 5600 8800 5600
Wire Wire Line
	8100 5400 8100 5300
Wire Wire Line
	8400 4400 8400 4300
Wire Wire Line
	8100 3600 8100 3500
Wire Wire Line
	8350 2500 8400 2500
Wire Wire Line
	8400 2500 8400 2600
Wire Wire Line
	10400 2000 10500 2000
Wire Wire Line
	6700 2300 6600 2300
Wire Wire Line
	5700 1850 5700 2000
Wire Wire Line
	7400 2500 7400 2600
Wire Wire Line
	7400 4300 7400 4400
Wire Wire Line
	6950 3500 7100 3500
Wire Wire Line
	6700 4100 6600 4100
Wire Wire Line
	7000 5300 7100 5300
Wire Wire Line
	5700 5600 5600 5600
Wire Wire Line
	6700 5900 6600 5900
Wire Wire Line
	4900 5400 4900 5300
Wire Wire Line
	5200 4300 5200 4400
Wire Wire Line
	4900 3500 4900 3600
Wire Wire Line
	5150 2500 5200 2500
Wire Wire Line
	5200 2500 5200 2600
Wire Wire Line
	5700 3650 5700 3800
Wire Wire Line
	350  2300 200  2300
Wire Wire Line
	1000 2500 1000 2600
Wire Wire Line
	1950 2600 2000 2600
Wire Wire Line
	1700 3600 1700 3500
Wire Wire Line
	2000 4300 2000 4400
Wire Wire Line
	1700 5400 1700 5300
Wire Wire Line
	2400 5600 2500 5600
Wire Wire Line
	3400 5900 3500 5900
Wire Wire Line
	3900 5400 3900 5300
Wire Wire Line
	4200 4400 4200 4300
Wire Wire Line
	3500 4100 3400 4100
Wire Wire Line
	2500 3800 2500 3650
Wire Wire Line
	3900 3500 3900 3600
Wire Wire Line
	4200 2500 4200 2600
Wire Wire Line
	3500 2300 3400 2300
Wire Wire Line
	2500 1850 2500 2000
Wire Wire Line
	-700 1850 -700 2000
Wire Wire Line
	1000 4300 1000 4400
Wire Wire Line
	700  5300 700  5400
Wire Wire Line
	300  5900 200  5900
Wire Wire Line
	-1300 2600 -1200 2600
Wire Wire Line
	200  4100 300  4100
Wire Wire Line
	-1200 4300 -1200 4400
Wire Wire Line
	-800 5600 -700 5600
Wire Wire Line
	700  3500 550  3500
Wire Wire Line
	-1500 5400 -1500 5300
Wire Wire Line
	-1500 3500 -1500 3600
Wire Wire Line
	-700 3800 -700 3650
Wire Wire Line
	4100 1600 4250 1600
Wire Wire Line
	4050 1300 4250 1300
$Comp
L power:PWR_FLAG #FLG0101
U 1 1 5C8A9BC5
P 4250 1300
F 0 "#FLG0101" H 4250 1375 50  0001 C CNN
F 1 "PWR_FLAG" H 4250 1474 50  0000 C CNN
F 2 "" H 4250 1300 50  0001 C CNN
F 3 "~" H 4250 1300 50  0001 C CNN
	1    4250 1300
	1    0    0    -1  
$EndComp
Connection ~ 4250 1300
Wire Wire Line
	4250 1300 4400 1300
$Comp
L power:PWR_FLAG #FLG0102
U 1 1 5C8AA2A5
P 4250 1600
F 0 "#FLG0102" H 4250 1675 50  0001 C CNN
F 1 "PWR_FLAG" H 4250 1774 50  0000 C CNN
F 2 "" H 4250 1600 50  0001 C CNN
F 3 "~" H 4250 1600 50  0001 C CNN
	1    4250 1600
	1    0    0    -1  
$EndComp
Connection ~ 4250 1600
Wire Wire Line
	4250 1600 4450 1600
$Comp
L Connector:Conn_01x03_Male P1
U 1 1 5C8ECDB3
P -1550 2000
F 0 "P1" H -1444 2278 50  0000 C CNN
F 1 "OUT" H -1444 2187 50  0000 C CNN
F 2 "Connector_PinHeader_2.54mm:PinHeader_1x03_P2.54mm_Vertical" H -1550 2000 50  0001 C CNN
F 3 "" H -1550 2000 50  0000 C CNN
	1    -1550 2000
	1    0    0    -1  
$EndComp
Text GLabel -1200 2150 3    60   Input ~ 0
5v
Text GLabel -1200 1850 1    60   Input ~ 0
GND
Wire Wire Line
	200  3800 200  2750
Wire Wire Line
	200  2750 -950 2750
Wire Wire Line
	-950 2750 -950 2000
Wire Wire Line
	-950 2000 -1350 2000
Wire Wire Line
	-1350 2100 -1200 2100
Wire Wire Line
	-1200 2100 -1200 2150
Wire Wire Line
	-1350 1900 -1200 1900
Wire Wire Line
	-1200 1900 -1200 1850
$EndSCHEMATC
